{
    "default_server_config": {
            "m.homeserver": {
                "base_url": "https://{{ element_web__matrix_server }}",
                "server_name": "{{ element_web__matrix_server }}"
            }
    },
    "brand": "{{ element_web__brand }}",
    "showLabsSettings": false,
    "piwik": false,
    "roomDirectory": {
        "servers": [
{% for dirsrv in element_web__directory_servers %}
            "{{ dirsrv }}"{{ "," if not loop.last else "" }}
{% endfor %}
        ]
    },
    "enable_presence_by_hs_url": {
        "https://{{ customer_domain }}": true,
        "https://matrix.org": false,
        "https://matrix-client.matrix.org": false
    },
    "terms_and_conditions_links": [
        {
            "url": "https://element.io/privacy",
            "text": "Privacy Policy"
        },
        {
            "url": "https://element.io/cookie-policy",
            "text": "Cookie Policy"
        }
    ],
    "branding": {
        "welcomeBackgroundUrl": "{{ element_web__background_url  }}",
        "authHeaderLogoUrl":"{{ element_web__logo_url }}",
        "authFooterLinks":[
            {
                "text": "{{ element_web__footer_text }}",
                "url": "{{ element_web__footer_url }}"
            }
        ]
    },
    "defaultCountryCode": "DE",
    "showLabsSettings": true,
    "features": {
        "feature_new_spinner": "labs",
        "feature_pinning": "labs",
        "feature_custom_status": "labs",
        "feature_custom_tags": "labs",
        "feature_state_counters": "labs"
    },
    "default_federate": true,
    "jitsi": {
        "preferredDomain": "meet.cyber4edu.org"
    }
}
